<?xml version="1.0" encoding="UTF-8" standalone="no"?>
<!-- Generator: Adobe Illustrator 16.0.0, SVG Export Plug-In . SVG Version: 6.00 Build 0)  -->

<svg
   xmlns:dc="http://purl.org/dc/elements/1.1/"
   xmlns:cc="http://creativecommons.org/ns#"
   xmlns:rdf="http://www.w3.org/1999/02/22-rdf-syntax-ns#"
   xmlns:svg="http://www.w3.org/2000/svg"
   xmlns="http://www.w3.org/2000/svg"
   xmlns:sodipodi="http://sodipodi.sourceforge.net/DTD/sodipodi-0.dtd"
   xmlns:inkscape="http://www.inkscape.org/namespaces/inkscape"
   version="1.1"
   id="Capa_1"
   x="0px"
   y="0px"
   width="1024"
   height="1024"
   viewBox="0 0 1024 1024"
   xml:space="preserve"
   inkscape:version="0.91 r13725"
   sodipodi:docname="icon.svg"
   inkscape:export-filename="C:\Users\Jamie\Sources\vso-agent-tasks\Tasks\PublishBuildArtifacts\icon.png"
   inkscape:export-xdpi="2.8099999"
   inkscape:export-ydpi="2.8099999"><metadata
     id="metadata44"><rdf:RDF><cc:Work
         rdf:about=""><dc:format>image/svg+xml</dc:format><dc:type
           rdf:resource="http://purl.org/dc/dcmitype/StillImage" /><dc:title></dc:title></cc:Work></rdf:RDF></metadata><defs
     id="defs42" /><sodipodi:namedview
     pagecolor="#ffffff"
     bordercolor="#666666"
     borderopacity="1"
     objecttolerance="10"
     gridtolerance="10"
     guidetolerance="10"
     inkscape:pageopacity="0"
     inkscape:pageshadow="2"
     inkscape:window-width="1241"
     inkscape:window-height="707"
     id="namedview40"
     showgrid="true"
     inkscape:snap-bbox="true"
     inkscape:bbox-nodes="true"
     inkscape:object-nodes="true"
     inkscape:zoom="0.272203"
     inkscape:cx="548.66011"
     inkscape:cy="560.25594"
     inkscape:window-x="950"
     inkscape:window-y="421"
     inkscape:window-maximized="0"
     inkscape:current-layer="Capa_1"><inkscape:grid
       type="xygrid"
       id="grid4172"
       spacingx="32"
       spacingy="32"
       empspacing="4" /></sodipodi:namedview><path
     d="m 352,768 320,0 0,-352.00001 224,0 L 512,0 128,415.99999 l 224,0 z"
     id="polygon6"
     inkscape:connector-curvature="0"
     sodipodi:nodetypes="cccccccc"
     style="fill:#424242;fill-opacity:1" /><rect
     x="128"
     y="896"
     width="768"
     height="128"
     id="rect8"
     style="fill:#424242;fill-opacity:1" /><g
     id="g10"
     transform="translate(0,590.5)" /><g
     id="g12"
     transform="translate(0,590.5)" /><g
     id="g14"
     transform="translate(0,590.5)" /><g
     id="g16"
     transform="translate(0,590.5)" /><g
     id="g18"
     transform="translate(0,590.5)" /><g
     id="g20"
     transform="translate(0,590.5)" /><g
     id="g22"
     transform="translate(0,590.5)" /><g
     id="g24"
     transform="translate(0,590.5)" /><g
     id="g26"
     transform="translate(0,590.5)" /><g
     id="g28"
     transform="translate(0,590.5)" /><g
     id="g30"
     transform="translate(0,590.5)" /><g
     id="g32"
     transform="translate(0,590.5)" /><g
     id="g34"
     transform="translate(0,590.5)" /><g
     id="g36"
     transform="translate(0,590.5)" /><g
     id="g38"
     transform="translate(0,590.5)" /></svg>