<?xml version="1.0" encoding="UTF-8" standalone="no"?>
<svg
   xmlns:dc="http://purl.org/dc/elements/1.1/"
   xmlns:cc="http://creativecommons.org/ns#"
   xmlns:rdf="http://www.w3.org/1999/02/22-rdf-syntax-ns#"
   xmlns:svg="http://www.w3.org/2000/svg"
   xmlns="http://www.w3.org/2000/svg"
   xmlns:sodipodi="http://sodipodi.sourceforge.net/DTD/sodipodi-0.dtd"
   xmlns:inkscape="http://www.inkscape.org/namespaces/inkscape"
   width="1024"
   height="1024"
   id="svg3336"
   version="1.1"
   inkscape:version="0.91 r13725"
   sodipodi:docname="icon.svg"
   inkscape:export-filename="C:\Users\Jamie\Sources\vso-agent-tasks\Tasks\VSBuild\icon.png"
   inkscape:export-xdpi="2.8099999"
   inkscape:export-ydpi="2.8099999">
  <defs
     id="defs3344" />
  <sodipodi:namedview
     pagecolor="#ffffff"
     bordercolor="#666666"
     borderopacity="1"
     objecttolerance="10"
     gridtolerance="20"
     guidetolerance="10"
     inkscape:pageopacity="0"
     inkscape:pageshadow="2"
     inkscape:window-width="1467"
     inkscape:window-height="1073"
     id="namedview3342"
     showgrid="true"
     inkscape:zoom="0.5"
     inkscape:cx="926.52703"
     inkscape:cy="453.30121"
     inkscape:window-x="1514"
     inkscape:window-y="231"
     inkscape:window-maximized="0"
     inkscape:current-layer="svg3336"
     inkscape:snap-bbox="true"
     inkscape:snap-global="true"
     inkscape:bbox-paths="false"
     inkscape:bbox-nodes="true">
    <inkscape:grid
       type="xygrid"
       id="grid4170"
       spacingx="32"
       spacingy="32"
       empspacing="4"
       dotted="false" />
  </sodipodi:namedview>
  <metadata
     id="metadata3338">
    <rdf:RDF>
      <cc:Work>
        <dc:subject>
                    Miscellaneous
                </dc:subject>
        <dc:identifier>
                    visual-studio-online
                </dc:identifier>
        <dc:title />
        <dc:format>
                    image/svg+xml
                </dc:format>
        <dc:publisher>
                    Amido Limited
                </dc:publisher>
        <dc:creator>
                    Richard Slater
                </dc:creator>
        <dc:type
           rdf:resource="http://purl.org/dc/dcmitype/StillImage" />
      </cc:Work>
    </rdf:RDF>
  </metadata>
  <path
     inkscape:connector-curvature="0"
     id="path4137"
     d="M 800,256 800,768 480,512 Z"
     style="fill:#ffffff;fill-opacity:1;fill-rule:evenodd" />
  <path
     style="fill:#ffffff;fill-rule:evenodd;fill-opacity:1"
     d="M 64,288 64,736 320,512 Z"
     id="path4135"
     inkscape:connector-curvature="0" />
  <path
     d="M 770.35184,0 1024,102.17247 1024,921.79866 767.98556,1024 360.72911,619.97537 102.40551,819.6823 0,768.59708 0,255.40292 102.40551,206.64924 360.72911,408.66079 770.35184,0 Z m -667.94633,359.90724 0,311.15355 L 256.01427,513.16663 102.40551,359.90724 Z m 400.30021,153.25939 265.30832,209.00864 0,-418.0188 -265.30832,209.01016 z"
     id="path3340"
     style="fill:#69207a;fill-opacity:1"
     inkscape:connector-curvature="0"
     inkscape:export-xdpi="2.8099999"
     inkscape:export-ydpi="2.8099999" />
</svg>
