{
  "id": "71A9A2D3-A98A-4CAA-96AB-AFFCA411ECDA",
  "name": "VSBuild",
  "friendlyName": "ms-resource:loc.friendlyName",
  "description": "ms-resource:loc.description",
  "helpMarkDown": "ms-resource:loc.helpMarkDown",
  "category": "Build",
  "visibility": [
    "Build"
  ],
  "author": "Microsoft Corporation",
  "version": {
    "Major": 1,
    "Minor": 0,
    "Patch": 26
  },
  "demands": [
    "msbuild",
    "visualstudio"
  ],
  "minimumAgentVersion": "1.83.0",
  "groups": [
    {
      "name": "advanced",
      "displayName": "ms-resource:loc.group.displayName.advanced",
      "isExpanded": false
    }
  ],
  "inputs": [
    {
      "name": "solution",
      "type": "filePath",
      "label": "ms-resource:loc.input.label.solution",
      "defaultValue": "**\\*.sln",
      "required": true,
      "helpMarkDown": "ms-resource:loc.input.help.solution"
    },
    {
      "name": "msbuildArgs",
      "type": "string",
      "label": "ms-resource:loc.input.label.msbuildArgs",
      "defaultValue": "",
      "required": false,
      "helpMarkDown": "ms-resource:loc.input.help.msbuildArgs"
    },
    {
      "name": "platform",
      "type": "string",
      "label": "ms-resource:loc.input.label.platform",
      "defaultValue": "",
      "required": false
    },
    {
      "name": "configuration",
      "type": "string",
      "label": "ms-resource:loc.input.label.configuration",
      "defaultValue": "",
      "required": false
    },
    {
      "name": "clean",
      "type": "boolean",
      "label": "ms-resource:loc.input.label.clean",
      "defaultValue": "false",
      "required": false
    },
    {
      "name": "restoreNugetPackages",
      "type": "boolean",
      "label": "ms-resource:loc.input.label.restoreNugetPackages",
      "defaultValue": "true",
      "required": false
    },
    {
      "name": "vsVersion",
      "type": "pickList",
      "label": "ms-resource:loc.input.label.vsVersion",
      "required": false,
      "helpMarkDown": "ms-resource:loc.input.help.vsVersion",
      "defaultValue": "14.0",
      "options": {
        "latest": "Latest",
        "14.0": "Visual Studio 2015",
        "12.0": "Visual Studio 2013",
        "11.0": "Visual Studio 2012"
      }
    },
    {
      "name": "msbuildArchitecture",
      "type": "pickList",
      "label": "ms-resource:loc.input.label.msbuildArchitecture",
      "defaultValue": "x86",
      "required": false,
      "helpMarkDown": "ms-resource:loc.input.help.msbuildArchitecture",
      "groupName": "advanced",
      "options": {
        "x86": "MSBuild x86",
        "x64": "MSBuild x64"
      }
    },
    {
      "name": "logProjectEvents",
      "type": "boolean",
      "label": "ms-resource:loc.input.label.logProjectEvents",
      "defaultValue": "true",
      "required": false,
      "groupName": "advanced"
    }
  ],
  "instanceNameFormat": "ms-resource:loc.instanceNameFormat",
  "execution": {
    "PowerShell3": {
      "target": "VSBuild.ps1"
    },
    "PowerShell": {
      "target": "$(currentDirectory)\\LegacyVSBuild.ps1",
      "argumentFormat": "",
      "workingDirectory": "$(currentDirectory)"
    }
  },
  "messages": {
    "MSBuildLocationDeprecated0": "ms-resource:loc.messages.MSBuildLocationDeprecated0",
    "MSBuildNotFoundVersion0Architecture1": "ms-resource:loc.messages.MSBuildNotFoundVersion0Architecture1",
    "MSBuildVersionDeprecated0": "ms-resource:loc.messages.MSBuildVersionDeprecated0",
    "UnexpectedVSVersion0": "ms-resource:loc.messages.UnexpectedVSVersion0",
    "VSLocationDeprecated0": "ms-resource:loc.messages.VSLocationDeprecated0",
    "VSNotFoundTry": "ms-resource:loc.messages.VSNotFoundTry",
    "VSVersion0NotFoundLookingForLatest": "ms-resource:loc.messages.VSVersion0NotFoundLookingForLatest"
  }
}